{
    "type": "Feature",
    "stac_version": "1.0.0-beta.2",
    "id": "LC80090082018211",
    "properties": {
        "mission": "landsat-8",
        "platform": "landsat-8",
        "instruments": [
            "oli",
            "tirs"
        ],
        "gsd": 30.0,
        "eo:cloud_cover": null,
        "proj:epsg": 32623,
        "view:sun_azimuth": -179.64380849,
        "view:sun_elevation": 34.94339918,
        "eo:bands": [
            {
                "name": "B1",
                "common_name": "coastal",
                "center_wavelength": 0.48,
                "full_width_half_max": 0.02
            },
            {
                "name": "B2",
                "common_name": "blue",
                "center_wavelength": 0.44,
                "full_width_half_max": 0.06
            },
            {
                "name": "B3",
                "common_name": "green",
                "center_wavelength": 0.56,
                "full_width_half_max": 0.06
            },
            {
                "name": "B4",
                "common_name": "red",
                "center_wavelength": 0.65,
                "full_width_half_max": 0.04
            },
            {
                "name": "B5",
                "common_name": "nir",
                "center_wavelength": 0.86,
                "full_width_half_max": 0.03
            },
            {
                "name": "B6",
                "common_name": "swir16",
                "center_wavelength": 1.6,
                "full_width_half_max": 0.08
            },
            {
                "name": "B7",
                "common_name": "swir22",
                "center_wavelength": 2.2,
                "full_width_half_max": 0.2
            },
            {
                "name": "B8",
                "common_name": "pan",
                "center_wavelength": 0.59,
                "full_width_half_max": 0.18
            },
            {
                "name": "B9",
                "common_name": "cirrus",
                "center_wavelength": 1.37,
                "full_width_half_max": 0.02
            },
            {
                "name": "B10",
                "common_name": "lwir11",
                "center_wavelength": 10.9,
                "full_width_half_max": 0.8
            },
            {
                "name": "B11",
                "common_name": "lwir12",
                "center_wavelength": 12.0,
                "full_width_half_max": 1.0
            }
        ],
        "datetime": "2018-07-30T14:58:41.793409Z"
    },
    "geometry": {
        "type": "Polygon",
        "coordinates": [
            [
                [
                    -43.87813255397738,
                    74.65431127545567
                ],
                [
                    -38.16805347252678,
                    73.79643345947166
                ],
                [
                    -41.36101512910891,
                    72.20561380702794
                ],
                [
                    -47.05011176938524,
                    73.07378933272767
                ],
                [
                    -43.87813255397738,
                    74.65431127545567
                ]
            ]
        ]
    },
    "links": [],
    "assets": {
        "B1": {
            "href": "https://s3-us-west-2.amazonaws.com/landsat-pds/c1/L8/009/008/LC08_L1GT_009008_20180730_20180730_01_RT/LC08_L1GT_009008_20180730_20180730_01_RT_B1.TIF",
            "type": "image/tiff; application=geotiff; profile=cloud-optimized",
            "eo:bands": [
                {
                    "name": "B1",
                    "common_name": "coastal",
                    "center_wavelength": 0.48,
                    "full_width_half_max": 0.02
                }
            ]
        },
        "B2": {
            "href": "https://s3-us-west-2.amazonaws.com/landsat-pds/c1/L8/009/008/LC08_L1GT_009008_20180730_20180730_01_RT/LC08_L1GT_009008_20180730_20180730_01_RT_B2.TIF",
            "type": "image/tiff; application=geotiff; profile=cloud-optimized",
            "eo:bands": [
                {
                    "name": "B2",
                    "common_name": "blue",
                    "center_wavelength": 0.44,
                    "full_width_half_max": 0.06
                }
            ]
        },
        "B3": {
            "href": "https://s3-us-west-2.amazonaws.com/landsat-pds/c1/L8/009/008/LC08_L1GT_009008_20180730_20180730_01_RT/LC08_L1GT_009008_20180730_20180730_01_RT_B3.TIF",
            "type": "image/tiff; application=geotiff; profile=cloud-optimized",
            "eo:bands": [
                {
                    "name": "B3",
                    "common_name": "green",
                    "center_wavelength": 0.56,
                    "full_width_half_max": 0.06
                }
            ]
        },
        "B4": {
            "href": "https://s3-us-west-2.amazonaws.com/landsat-pds/c1/L8/009/008/LC08_L1GT_009008_20180730_20180730_01_RT/LC08_L1GT_009008_20180730_20180730_01_RT_B4.TIF",
            "type": "image/tiff; application=geotiff; profile=cloud-optimized",
            "eo:bands": [
                {
                    "name": "B4",
                    "common_name": "red",
                    "center_wavelength": 0.65,
                    "full_width_half_max": 0.04
                }
            ]
        },
        "B5": {
            "href": "https://s3-us-west-2.amazonaws.com/landsat-pds/c1/L8/009/008/LC08_L1GT_009008_20180730_20180730_01_RT/LC08_L1GT_009008_20180730_20180730_01_RT_B5.TIF",
            "type": "image/tiff; application=geotiff; profile=cloud-optimized",
            "eo:bands": [
                {
                    "name": "B5",
                    "common_name": "nir",
                    "center_wavelength": 0.86,
                    "full_width_half_max": 0.03
                }
            ]
        },
        "B6": {
            "href": "https://s3-us-west-2.amazonaws.com/landsat-pds/c1/L8/009/008/LC08_L1GT_009008_20180730_20180730_01_RT/LC08_L1GT_009008_20180730_20180730_01_RT_B6.TIF",
            "type": "image/tiff; application=geotiff; profile=cloud-optimized",
            "eo:bands": [
                {
                    "name": "B6",
                    "common_name": "swir16",
                    "center_wavelength": 1.6,
                    "full_width_half_max": 0.08
                }
            ]
        },
        "B7": {
            "href": "https://s3-us-west-2.amazonaws.com/landsat-pds/c1/L8/009/008/LC08_L1GT_009008_20180730_20180730_01_RT/LC08_L1GT_009008_20180730_20180730_01_RT_B7.TIF",
            "type": "image/tiff; application=geotiff; profile=cloud-optimized",
            "eo:bands": [
                {
                    "name": "B7",
                    "common_name": "swir22",
                    "center_wavelength": 2.2,
                    "full_width_half_max": 0.2
                }
            ]
        },
        "B8": {
            "href": "https://s3-us-west-2.amazonaws.com/landsat-pds/c1/L8/009/008/LC08_L1GT_009008_20180730_20180730_01_RT/LC08_L1GT_009008_20180730_20180730_01_RT_B8.TIF",
            "type": "image/tiff; application=geotiff; profile=cloud-optimized",
            "eo:bands": [
                {
                    "name": "B8",
                    "common_name": "pan",
                    "center_wavelength": 0.59,
                    "full_width_half_max": 0.18
                }
            ],
            "gsd": 15.0
        },
        "B9": {
            "href": "https://s3-us-west-2.amazonaws.com/landsat-pds/c1/L8/009/008/LC08_L1GT_009008_20180730_20180730_01_RT/LC08_L1GT_009008_20180730_20180730_01_RT_B9.TIF",
            "type": "image/tiff; application=geotiff; profile=cloud-optimized",
            "eo:bands": [
                {
                    "name": "B9",
                    "common_name": "cirrus",
                    "center_wavelength": 1.37,
                    "full_width_half_max": 0.02
                }
            ]
        },
        "B10": {
            "href": "https://s3-us-west-2.amazonaws.com/landsat-pds/c1/L8/009/008/LC08_L1GT_009008_20180730_20180730_01_RT/LC08_L1GT_009008_20180730_20180730_01_RT_B10.TIF",
            "type": "image/tiff; application=geotiff; profile=cloud-optimized",
            "eo:bands": [
                {
                    "name": "B10",
                    "common_name": "lwir11",
                    "center_wavelength": 10.9,
                    "full_width_half_max": 0.8
                }
            ],
            "gsd": 100.0
        },
        "B11": {
            "href": "https://s3-us-west-2.amazonaws.com/landsat-pds/c1/L8/009/008/LC08_L1GT_009008_20180730_20180730_01_RT/LC08_L1GT_009008_20180730_20180730_01_RT_B11.TIF",
            "type": "image/tiff; application=geotiff; profile=cloud-optimized",
            "eo:bands": [
                {
                    "name": "B11",
                    "common_name": "lwir12",
                    "center_wavelength": 12.0,
                    "full_width_half_max": 1.0
                }
            ],
            "gsd": 100.0
        },
        "thumbnail": {
            "href": "https://s3-us-west-2.amazonaws.com/landsat-pds/c1/L8/009/008/LC08_L1GT_009008_20180730_20180730_01_RT/LC08_L1GT_009008_20180730_20180730_01_RT_thumb_large.jpg",
            "type": "image/jpeg"
        },
        "index": {
            "href": "https://s3-us-west-2.amazonaws.com/landsat-pds/c1/L8/009/008/LC08_L1GT_009008_20180730_20180730_01_RT/LC08_L1GT_009008_20180730_20180730_01_RT_index.html",
            "type": "application/html"
        },
        "ANG": {
            "href": "https://s3-us-west-2.amazonaws.com/landsat-pds/c1/L8/009/008/LC08_L1GT_009008_20180730_20180730_01_RT/LC08_L1GT_009008_20180730_20180730_01_RT_ANG.txt",
            "type": "text/plain"
        },
        "MTL": {
            "href": "https://s3-us-west-2.amazonaws.com/landsat-pds/c1/L8/009/008/LC08_L1GT_009008_20180730_20180730_01_RT/LC08_L1GT_009008_20180730_20180730_01_RT_MTL.txt",
            "type": "text/plain"
        },
        "BQA": {
            "href": "https://s3-us-west-2.amazonaws.com/landsat-pds/c1/L8/009/008/LC08_L1GT_009008_20180730_20180730_01_RT/LC08_L1GT_009008_20180730_20180730_01_RT_BQA.TIF",
            "type": "image/tiff; application=geotiff"
        }
    },
    "bbox": [
        -47.05884,
        72.20364,
        -38.15799,
        74.65618
    ],
    "stac_extensions": [
        "eo",
        "projection",
        "view"
    ],
    "collection": "landsat-8-l1"
}